id;type_sinistre;date_sinistre;lieu_sinistre
1;24/365;2021-08-07;Metrics Account approach
2;synthesizing;2021-08-08;Port
3;Chicken;2021-08-08;toolset monitor
4;Spring Comoros;2021-08-08;Pants
5;Fantastic Cambridgeshire;2021-08-08;Beauty
6;Directives Gambia;2021-08-08;recontextualize Dynamic Strategist
7;Savings Ergonomic;2021-08-08;face turn-key
8;Response;2021-08-07;Ghana RSS
9;Fish;2021-08-07;neural-net
10;Awesome SMS Wallis;2021-08-07;magnetic
